1, 9.0, uttapam
1, 4.0, wine
1, 10.0, beer
1, 2.0, puri
1, 4.0, omelette
1, 7.0, rissotto
1, 10.0, burger
1, 2.0, pasta
1, 5.0, chicken
1, 7.0, egg
1, 8.0, uttapam, pasta, burger, egg, puri, beer, rissotto, omelette, chicken,
1, 6.0, uttapam, puri, wine, pasta, rissotto,
1, 2.0, beer, omelette, chicken, rissotto, pasta, puri, uttapam, burger, egg, wine,
1, 3.0, egg, pasta, uttapam, rissotto, chicken, wine,
1, 3.0, rissotto, wine, puri,
1, 9.0, burger, uttapam,
1, 10.0, uttapam, omelette, wine, rissotto, puri, pasta,
1, 5.0, puri, uttapam, pasta, chicken, burger, beer,
1, 8.0, egg, uttapam, omelette, chicken, wine, burger, beer,
1, 9.0, beer, chicken, burger, rissotto, egg, uttapam, pasta,
2, 7.0, egg
2, 8.0, pasta
2, 5.0, wine
2, 6.0, uttapam
2, 3.0, rissotto
2, 10.0, beer
2, 2.0, omelette
2, 2.0, puri
2, 6.0, burger
2, 4.0, uttapam, beer, burger, egg,
2, 10.0, beer, pasta, egg, omelette, uttapam, burger, rissotto, chicken, puri, wine,
2, 10.0, uttapam, beer, burger, chicken, puri, rissotto,
2, 9.0, burger, rissotto, pasta, wine, beer, omelette, uttapam,
2, 8.0, wine, pasta, puri, egg, rissotto, beer, omelette,
2, 10.0, chicken, omelette, wine, pasta,
2, 7.0, wine, pasta, egg,
2, 7.0, uttapam, egg, pasta, burger, rissotto,
2, 8.0, chicken, omelette, rissotto, wine, egg, puri, pasta, burger, beer,
2, 6.0, burger, uttapam, puri, pasta, chicken, omelette,
2, 6.0, egg, wine, pasta, beer,
2, 5.0, uttapam, burger,
2, 6.0, rissotto, pasta, omelette,
2, 10.0, wine, beer, egg, pasta, uttapam, omelette, burger, rissotto, puri,
2, 5.0, chicken, beer, wine, pasta, uttapam, burger, puri, omelette, rissotto,
2, 7.0, pasta, chicken, uttapam, beer, puri, egg, omelette, wine,
3, 5.0, burger
3, 4.0, egg
3, 6.0, omelette
3, 5.0, rissotto
3, 10.0, wine
3, 4.0, pasta
3, 4.0, beer
3, 6.0, uttapam
3, 9.0, puri
3, 3.0, egg, puri, uttapam, beer,
3, 5.0, wine, omelette, rissotto, uttapam, pasta,
3, 6.0, omelette, pasta, wine, beer, puri, rissotto,
3, 5.0, omelette, puri, chicken, beer, burger, uttapam,
3, 8.0, beer, chicken, uttapam, burger, rissotto, pasta, puri, egg,
3, 8.0, wine, burger, pasta, egg, rissotto, uttapam, puri,
3, 6.0, egg, uttapam, rissotto, beer, wine, chicken, puri, pasta,
3, 4.0, rissotto, burger, beer, egg,
3, 6.0, wine, uttapam, omelette, pasta,
3, 8.0, beer, pasta, puri, burger, rissotto,
3, 8.0, uttapam, pasta, rissotto, egg, beer,
4, 3.0, rissotto
4, 4.0, omelette
4, 5.0, pasta
4, 10.0, burger
4, 3.0, puri
4, 10.0, wine
4, 2.0, chicken
4, 4.0, egg
4, 4.0, beer
4, 8.0, uttapam
4, 2.0, rissotto, chicken, pasta,
4, 6.0, wine, rissotto, egg,
4, 8.0, puri, beer, wine,
4, 5.0, wine, rissotto, burger,
4, 8.0, omelette, chicken, pasta, uttapam, rissotto, wine,
4, 10.0, egg, chicken, beer, wine, rissotto, puri,
4, 6.0, wine, puri, pasta, burger, uttapam, beer, omelette, chicken, rissotto, egg,
4, 4.0, chicken, egg, wine, rissotto, beer, omelette, uttapam, pasta,
4, 9.0, wine, rissotto, chicken, beer, puri, egg, omelette, uttapam, burger,
4, 3.0, rissotto, beer, omelette, chicken,
4, 5.0, uttapam, omelette, chicken, pasta, burger, beer, wine, puri, rissotto,
4, 2.0, puri, pasta,
4, 10.0, rissotto, uttapam, burger, chicken, omelette,
4, 4.0, puri, beer, rissotto, egg, chicken, burger, pasta, omelette, wine,
4, 3.0, burger, puri, pasta, egg,
5, 3.0, chicken
5, 4.0, omelette
5, 7.0, rissotto
5, 4.0, puri
5, 9.0, burger
5, 6.0, wine
5, 5.0, uttapam, beer, egg, burger, puri, chicken, wine,
5, 9.0, puri, pasta, rissotto, beer,
5, 7.0, rissotto, beer, puri, pasta, egg,
5, 3.0, uttapam, puri, egg, beer, rissotto, omelette, wine,
5, 4.0, egg, omelette, burger, pasta,
5, 7.0, beer, puri,
5, 7.0, puri, omelette, pasta, rissotto,
5, 7.0, wine, uttapam,
5, 5.0, rissotto, chicken, egg, wine, pasta, omelette, puri, uttapam, burger, beer,
5, 3.0, burger, wine, omelette,
5, 2.0, chicken, wine, burger, omelette, puri, rissotto, pasta,
5, 3.0, rissotto, omelette, chicken, egg, beer, puri, pasta,
5, 5.0, puri, wine, chicken,
5, 10.0, uttapam, puri, wine, egg,
5, 8.0, burger, puri, pasta, wine,
5, 7.0, burger, chicken, egg, uttapam, puri, rissotto,
5, 4.0, egg, chicken, puri, wine, pasta, rissotto,
5, 4.0, pasta, burger, uttapam, rissotto, chicken, omelette, egg,
5, 5.0, chicken, uttapam, egg, omelette, pasta, wine,
5, 4.0, egg, pasta, wine, chicken, uttapam, burger, omelette, beer,
6, 4.0, chicken
6, 2.0, rissotto
6, 4.0, puri
6, 7.0, pasta
6, 7.0, beer
6, 2.0, egg
6, 10.0, uttapam
6, 5.0, wine
6, 6.0, omelette
6, 5.0, burger
6, 10.0, puri, beer, uttapam, chicken, pasta, omelette, egg, burger, wine,
6, 7.0, puri, omelette, burger, egg, chicken, rissotto, uttapam, beer, wine, pasta,
6, 6.0, egg, uttapam, wine, chicken, puri, beer, omelette,
6, 8.0, wine, pasta, beer, burger,
6, 7.0, uttapam, burger,
6, 2.0, pasta, uttapam, wine, puri, beer, omelette, egg,
6, 3.0, omelette, rissotto, pasta, puri, chicken,
6, 10.0, pasta, chicken, rissotto, uttapam, egg, omelette, puri, wine,
6, 8.0, puri, chicken, omelette, uttapam, egg, rissotto,
6, 5.0, beer, egg, wine, rissotto,
7, 6.0, beer
7, 2.0, uttapam
7, 4.0, chicken
7, 8.0, burger
7, 5.0, wine
7, 6.0, rissotto
7, 3.0, pasta
7, 8.0, egg
7, 3.0, uttapam, beer, burger, egg, omelette, puri, pasta, rissotto,
7, 3.0, uttapam, egg, puri, beer, omelette,
7, 8.0, egg, chicken, beer, uttapam, puri, rissotto, omelette, wine, burger, pasta,
7, 10.0, egg, rissotto, chicken, burger, puri, wine,
7, 2.0, egg, pasta, rissotto, burger, omelette,
7, 2.0, beer, omelette, uttapam, chicken, wine,
7, 6.0, rissotto, burger, pasta,
7, 10.0, beer, egg,
7, 3.0, uttapam, chicken,
7, 9.0, chicken, wine, egg,
7, 8.0, rissotto, beer, pasta,
7, 9.0, beer, uttapam, burger, chicken, egg, rissotto, omelette,
7, 10.0, egg, puri, uttapam, rissotto, pasta, beer, burger, wine, omelette,
7, 9.0, beer, egg, chicken, wine,
7, 2.0, omelette, egg, puri, rissotto, burger, wine,
7, 5.0, burger, puri, omelette, egg, beer,
7, 4.0, puri, uttapam, egg, pasta, wine, chicken,
7, 10.0, burger, uttapam, beer, wine, chicken, omelette, pasta, puri,
7, 2.0, chicken, puri,
7, 6.0, chicken, egg, burger, rissotto,
7, 8.0, uttapam, beer, wine, pasta, rissotto, burger,
8, 2.0, beer
8, 8.0, puri
8, 10.0, burger
8, 7.0, egg
8, 7.0, uttapam
8, 5.0, chicken
8, 4.0, omelette
8, 5.0, pasta
8, 2.0, wine
8, 2.0, wine, puri, chicken, omelette, egg, pasta, burger, rissotto,
8, 7.0, egg, beer, omelette, puri, uttapam, rissotto, wine, chicken, burger,
8, 3.0, omelette, wine, egg,
8, 6.0, pasta, omelette, egg, wine, beer, burger, chicken,
8, 9.0, uttapam, omelette, puri, beer, pasta, egg, chicken, rissotto, burger, wine,
8, 7.0, egg, beer, rissotto,
8, 10.0, egg, burger, uttapam, chicken, omelette, wine, puri, pasta,
8, 9.0, beer, egg, wine, pasta, chicken, omelette, uttapam, burger, rissotto,
8, 8.0, rissotto, egg, omelette, wine, puri, beer, uttapam,
8, 6.0, burger, puri, wine, uttapam, beer,
8, 5.0, pasta, wine,
8, 8.0, egg, beer, rissotto, wine, uttapam, burger, omelette, puri, pasta,
8, 5.0, egg, burger, wine, uttapam, beer, chicken, pasta, puri,
8, 6.0, omelette, wine,
8, 6.0, chicken, uttapam, burger, puri,
8, 7.0, puri, chicken, uttapam, omelette, beer, pasta, wine, burger, rissotto,
8, 3.0, chicken, wine, uttapam, burger, pasta,
8, 9.0, rissotto, chicken, puri, burger, pasta, omelette,
8, 5.0, omelette, puri, uttapam, rissotto, wine, burger,
8, 7.0, puri, uttapam, chicken,
9, 5.0, egg
9, 8.0, chicken
9, 2.0, uttapam
9, 6.0, wine
9, 7.0, pasta
9, 3.0, beer
9, 3.0, burger
9, 6.0, egg, rissotto,
9, 9.0, puri, egg, omelette, chicken, burger, uttapam, pasta,
9, 10.0, rissotto, chicken, omelette, uttapam, puri, wine, burger,
9, 4.0, chicken, puri, pasta, uttapam, egg, rissotto, burger,
9, 8.0, egg, omelette, rissotto,
9, 6.0, omelette, rissotto, pasta, egg, uttapam,
9, 8.0, beer, pasta, puri, egg, rissotto, burger, uttapam, omelette, wine, chicken,
9, 8.0, chicken, egg, uttapam, beer, burger, rissotto, wine, pasta, omelette,
9, 9.0, uttapam, omelette, rissotto,
9, 5.0, beer, burger, egg, omelette, pasta, uttapam, chicken, puri,
9, 7.0, egg, uttapam, pasta, puri, omelette, beer, rissotto, chicken,
9, 3.0, uttapam, burger, rissotto, egg, pasta, omelette, chicken,
9, 6.0, burger, chicken, puri, uttapam, pasta, beer, rissotto, omelette,
9, 9.0, chicken, omelette,
9, 2.0, egg, omelette, beer, rissotto, burger, chicken, wine, puri,
9, 10.0, chicken, uttapam,
9, 7.0, chicken, burger, uttapam, beer, wine, omelette, rissotto, egg,
10, 6.0, pasta
10, 8.0, wine
10, 5.0, rissotto
10, 5.0, omelette
10, 9.0, beer
10, 5.0, egg
10, 10.0, puri
10, 6.0, puri, beer, rissotto, burger, egg,
10, 2.0, burger, uttapam, puri, egg,
10, 9.0, wine, burger, puri, chicken, pasta, omelette, rissotto, beer, egg, uttapam,
10, 10.0, omelette, beer,
10, 5.0, pasta, beer, rissotto, uttapam, chicken, burger, omelette,
10, 4.0, chicken, puri, pasta, burger, rissotto, beer, uttapam, wine, egg,
10, 9.0, omelette, beer, chicken, wine, burger, puri,
10, 10.0, beer, egg, puri, omelette,
10, 10.0, uttapam, egg, puri,
10, 7.0, beer, chicken, omelette, burger, uttapam, pasta,
10, 7.0, wine, burger,
