1, 9.0, wada
1, 5.0, wine
1, 4.0, pizza
1, 3.0, burger
1, 4.0, uttapam
1, 7.0, egg
1, 2.0, wine, wada,
1, 2.0, pizza, wada, wine, idly, uttapam, egg, beer, chicken, burger, pasta,
1, 10.0, beer, egg, pasta,
1, 7.0, wine, idly, burger,
1, 6.0, chicken, burger, wine, wada, uttapam,
1, 4.0, pasta, wine, chicken, egg, burger, uttapam, pizza,
1, 8.0, uttapam, pasta, idly, wada, burger, chicken, wine, egg,
1, 3.0, uttapam, burger, idly,
1, 9.0, pasta, chicken, idly, egg, wine, pizza,
1, 2.0, chicken, egg, pizza, beer, uttapam,
1, 2.0, pasta, burger,
1, 7.0, wine, pizza, beer, wada, egg, pasta, idly, burger,
1, 9.0, pasta, pizza, burger, idly, chicken, egg,
2, 2.0, beer
2, 5.0, egg
2, 9.0, pasta
2, 9.0, idly
2, 2.0, uttapam
2, 5.0, pizza
2, 9.0, burger
2, 9.0, chicken
2, 6.0, wada
2, 4.0, burger, wine, egg, pizza, wada, pasta,
2, 2.0, pasta, wine, wada, burger,
2, 4.0, burger, uttapam, chicken, beer, pasta, pizza, wine, idly,
2, 8.0, beer, chicken, uttapam,
2, 2.0, burger, uttapam,
2, 6.0, pasta, pizza, wine, egg, chicken, wada, idly, uttapam, burger, beer,
2, 4.0, pasta, wada, wine, beer,
2, 2.0, pizza, burger,
2, 5.0, idly, uttapam, egg, wada,
2, 6.0, idly, burger, wada, uttapam, beer, chicken, pizza,
2, 7.0, beer, idly, pasta, wada, uttapam, egg, burger,
2, 10.0, wada, wine, uttapam, chicken, burger, beer,
2, 4.0, egg, burger, pasta,
3, 5.0, egg
3, 3.0, beer
3, 2.0, idly
3, 8.0, pizza
3, 8.0, wine
3, 5.0, pasta
3, 3.0, chicken
3, 4.0, burger
3, 3.0, uttapam
3, 9.0, wada
3, 5.0, uttapam, pizza, wada, pasta, wine, beer, egg, chicken, idly, burger,
3, 10.0, uttapam, egg, pasta, wine, idly, wada,
3, 9.0, egg, idly, beer, pizza, chicken, burger,
3, 2.0, wine, uttapam, pasta, idly,
3, 3.0, pizza, idly, burger, wine, chicken, pasta, uttapam,
3, 4.0, uttapam, idly, pasta,
3, 9.0, egg, pasta, uttapam, idly,
3, 8.0, wine, burger, idly,
3, 8.0, wine, burger,
3, 7.0, egg, idly, pasta, chicken, uttapam,
3, 8.0, wada, beer, egg, uttapam, pasta, chicken, wine, idly,
3, 9.0, pasta, wine, burger,
3, 7.0, beer, pizza, chicken,
3, 2.0, egg, uttapam, wine, chicken,
3, 10.0, beer, egg, uttapam, burger, pizza, wada, pasta, idly,
3, 4.0, egg, beer, uttapam, idly, burger, wine, chicken, pizza, pasta,
3, 7.0, idly, pizza, wine, beer, chicken, burger, wada, egg, uttapam,
3, 10.0, chicken, wada, uttapam, idly, egg, burger,
3, 7.0, wada, egg, idly, wine, chicken, pizza, uttapam, burger,
3, 2.0, pizza, uttapam,
3, 5.0, pasta, egg, chicken, beer, pizza, idly, uttapam, wada,
4, 2.0, uttapam
4, 4.0, egg
4, 9.0, wine
4, 10.0, pasta
4, 9.0, idly
4, 8.0, chicken
4, 5.0, wada
4, 2.0, beer
4, 9.0, pizza
4, 3.0, wine, chicken,
4, 8.0, chicken, pasta, wada, egg, uttapam, pizza, beer, wine, burger, idly,
4, 7.0, idly, beer, chicken, burger,
4, 10.0, egg, burger, pasta, beer, pizza, uttapam, idly, wine,
4, 9.0, beer, chicken,
4, 8.0, pizza, chicken, pasta, burger,
4, 8.0, burger, uttapam, pizza, wada, chicken, beer, idly,
4, 7.0, uttapam, chicken, pizza, wada,
4, 8.0, idly, egg, pasta, wada, wine, burger, beer, uttapam,
4, 9.0, beer, chicken, egg, wada, pizza, uttapam, idly, burger,
4, 6.0, pizza, wada, wine, egg, chicken,
4, 6.0, egg, beer,
4, 6.0, wine, burger, uttapam, egg, wada, pasta,
5, 10.0, chicken
5, 10.0, wada
5, 10.0, idly
5, 2.0, pasta
5, 3.0, burger
5, 10.0, uttapam
5, 7.0, idly, beer, burger, chicken, uttapam, pasta, wine, pizza, wada,
5, 4.0, wine, egg, pizza, beer, wada, idly, uttapam, chicken, burger, pasta,
5, 4.0, wine, idly, pizza, pasta, beer, uttapam, burger,
5, 10.0, idly, chicken, wine, beer, pizza,
5, 4.0, wine, pizza, pasta,
5, 9.0, wada, pasta,
5, 10.0, uttapam, wine, wada,
5, 6.0, wine, beer, uttapam, chicken, egg, idly, pasta,
5, 3.0, wada, chicken, pasta, beer, burger,
5, 2.0, pizza, wada, egg, uttapam, beer, chicken, pasta, wine, burger,
5, 5.0, pasta, burger, uttapam, pizza, beer, idly, chicken, egg, wine,
5, 9.0, burger, egg, uttapam, chicken,
5, 5.0, uttapam, pizza, wine, egg, idly, burger, beer,
5, 6.0, pasta, beer, burger,
5, 4.0, wine, wada, uttapam, burger, beer, egg, chicken, pasta,
5, 8.0, wada, burger, uttapam,
5, 9.0, beer, uttapam, wine, idly, burger, pizza, egg, pasta,
5, 3.0, chicken, pizza, wine,
5, 6.0, uttapam, idly, pizza, beer, chicken, pasta,
5, 3.0, wada, egg, wine, burger, uttapam, idly,
5, 6.0, chicken, pasta, burger, wine, beer, wada, uttapam, pizza,
5, 2.0, pasta, egg, uttapam,
5, 6.0, burger, uttapam, chicken, idly, wada,
5, 8.0, beer, pasta, egg, uttapam,
5, 10.0, wine, pizza,
5, 5.0, idly, uttapam, chicken,
5, 6.0, wine, egg, pizza,
5, 10.0, burger, wada, egg, uttapam, wine, idly, chicken,
6, 8.0, wine
6, 5.0, pizza
6, 4.0, chicken
6, 6.0, burger
6, 7.0, uttapam
6, 8.0, beer
6, 9.0, wada
6, 2.0, pasta
6, 6.0, egg, chicken, pizza, wada,
6, 2.0, idly, chicken, wada, wine, pasta, pizza, beer,
6, 8.0, egg, uttapam, beer, burger, wine, wada, pizza, idly, pasta,
6, 5.0, burger, egg,
6, 8.0, wine, burger, beer, wada, uttapam, chicken, egg,
6, 6.0, pizza, pasta,
6, 8.0, chicken, uttapam, beer, egg, idly, wine, pizza, wada, burger,
6, 3.0, chicken, wine, burger, pizza, uttapam, wada, egg, pasta,
6, 2.0, pizza, wine, pasta,
6, 7.0, chicken, pizza, egg, beer, wada, pasta, uttapam,
6, 8.0, burger, uttapam, beer, idly,
6, 4.0, chicken, wine,
6, 2.0, uttapam, idly, pizza, pasta, wada, wine, egg, burger, chicken, beer,
6, 9.0, idly, beer, wine,
6, 7.0, beer, wine, pizza, chicken,
6, 6.0, beer, chicken,
6, 6.0, beer, egg, pizza, idly, uttapam, pasta, burger, wine,
6, 8.0, pasta, burger, egg, pizza, beer, wada,
6, 3.0, burger, beer, uttapam, chicken, pasta,
6, 4.0, chicken, burger,
6, 3.0, wine, egg, idly, pizza, beer,
7, 7.0, idly
7, 5.0, pizza
7, 7.0, burger
7, 3.0, wine
7, 10.0, pasta
7, 7.0, wada
7, 2.0, beer
7, 5.0, egg
7, 6.0, chicken
7, 10.0, beer, wine,
7, 2.0, beer, pizza, wada, pasta, egg, idly, wine, uttapam, burger, chicken,
7, 2.0, pasta, wada,
7, 7.0, pizza, chicken, wada, uttapam, egg, beer, wine, pasta, idly,
7, 2.0, idly, egg, burger, wada, beer, pasta,
7, 3.0, chicken, uttapam, pizza, wine,
7, 8.0, wada, pasta, uttapam, egg, beer, chicken, wine, burger, idly,
7, 10.0, egg, pizza, wada, idly, pasta, burger, uttapam, chicken, beer,
7, 10.0, beer, wine, egg, pizza, idly, uttapam, pasta,
7, 4.0, wada, burger, uttapam, egg, pizza, beer, chicken, idly,
7, 4.0, pizza, egg,
7, 10.0, wada, pizza,
7, 9.0, egg, wada,
7, 4.0, beer, pasta, egg, wada, pizza,
7, 7.0, pasta, burger, pizza, beer, chicken, wine, idly, egg, wada,
7, 8.0, wine, pizza, burger,
8, 6.0, pizza
8, 8.0, pasta
8, 7.0, chicken
8, 4.0, egg
8, 7.0, burger
8, 5.0, beer
8, 3.0, idly
8, 10.0, wine
8, 3.0, wada
8, 2.0, uttapam
8, 6.0, uttapam, idly, wine, pizza, egg,
8, 2.0, idly, burger, chicken, egg, beer, pizza,
8, 7.0, uttapam, wada, pasta,
8, 10.0, egg, beer, uttapam, burger, pasta, idly, wada, chicken, pizza, wine,
8, 2.0, chicken, uttapam, beer, pasta, egg, pizza, burger,
8, 7.0, pizza, chicken, burger, pasta, beer, idly,
8, 4.0, burger, uttapam,
8, 2.0, idly, wine, pizza, beer, wada, pasta, uttapam, egg, burger,
8, 10.0, pasta, beer,
8, 6.0, beer, chicken, burger, wada, uttapam, pizza,
8, 10.0, pasta, wada, beer, pizza, idly, uttapam,
8, 3.0, egg, wine, pasta, pizza,
8, 3.0, wada, pizza, burger, pasta,
8, 5.0, idly, pizza,
8, 2.0, pasta, beer, egg, wine,
8, 6.0, idly, egg, pasta,
9, 6.0, burger
9, 5.0, uttapam
9, 8.0, pasta
9, 3.0, egg
9, 4.0, chicken
9, 9.0, wada
9, 6.0, beer
9, 4.0, wine
9, 6.0, wada, beer, chicken, uttapam, wine, burger,
9, 8.0, burger, egg, beer,
9, 2.0, idly, chicken, wine,
9, 6.0, pizza, chicken, burger, wine,
9, 5.0, pizza, egg, burger, wada,
9, 10.0, burger, idly, chicken, pizza,
9, 7.0, idly, wada, beer, uttapam, egg, pizza, pasta,
9, 5.0, beer, egg, idly, pasta, wada, wine, uttapam, chicken,
9, 8.0, wada, burger, idly, wine, chicken, uttapam,
9, 2.0, pasta, burger, idly, pizza, egg, uttapam, beer, chicken, wine, wada,
9, 2.0, wada, uttapam, pizza, chicken, wine, egg, idly, burger,
9, 10.0, pasta, beer, pizza, egg,
9, 9.0, egg, chicken, burger, pasta, pizza, beer, wada,
9, 6.0, burger, uttapam, pasta, pizza, beer, wada, idly,
9, 7.0, uttapam, chicken, egg, beer,
9, 8.0, pizza, idly, egg, beer,
9, 3.0, beer, pizza, uttapam, chicken, idly, wada,
9, 3.0, uttapam, beer, wada, idly,
9, 2.0, pasta, wada, idly, wine, chicken, uttapam, burger, egg,
9, 4.0, wine, beer,
9, 5.0, chicken, pasta, uttapam, wada, pizza, idly, burger, wine,
9, 5.0, chicken, burger, egg,
9, 6.0, wada, idly, egg, uttapam, beer, chicken,
10, 3.0, uttapam
10, 3.0, beer
10, 3.0, pasta
10, 7.0, chicken
10, 10.0, pizza
10, 2.0, idly
10, 10.0, wine
10, 9.0, burger
10, 2.0, pizza, wine, chicken, wada, idly, burger, pasta,
10, 5.0, beer, wine, uttapam, chicken, pizza, idly, egg,
10, 6.0, pizza, egg, beer, idly, burger,
10, 5.0, chicken, burger, wada, uttapam, pasta, egg, wine, idly, beer, pizza,
10, 10.0, egg, chicken, pizza, wine, uttapam, beer,
10, 2.0, pasta, burger, wine, uttapam,
10, 2.0, uttapam, pizza,
10, 8.0, pizza, pasta, chicken, wine, wada, idly, egg, burger,
10, 2.0, pizza, beer, uttapam, wine,
10, 8.0, pasta, beer, egg, wada,
10, 8.0, pizza, wada,
10, 7.0, burger, wada,
10, 4.0, egg, wada, burger, beer, pizza, pasta, uttapam, wine,
10, 10.0, pasta, pizza, beer, uttapam,
10, 10.0, uttapam, pasta, idly, wada, burger,
10, 3.0, idly, wada, uttapam, pasta, wine,
